<svg xmlns="http://www.w3.org/2000/svg" width="28" height="28" viewBox="0 0 28 28">
  <defs>
    <style>
      .cls-1 {
        fill: #707070;
      }

      .cls-2 {
        fill: none;
      }
    </style>
  </defs>
  <g id="Group_388" data-name="Group 388" transform="translate(-1608 -376)">
    <path id="traffic-signal" class="cls-1" d="M11,22a10.994,10.994,0,1,0-7.78-3.22A11.013,11.013,0,0,0,11,22Zm0-1.833A9.1,9.1,0,0,1,5.2,18.1L18.1,5.2A9.17,9.17,0,0,1,11,20.167ZM11,1.833A9.1,9.1,0,0,1,16.8,3.9L3.9,16.8A9.17,9.17,0,0,1,11,1.833Zm0,0" transform="translate(1611 379)"/>
    <rect id="Rectangle_266" data-name="Rectangle 266" class="cls-2" width="28" height="28" transform="translate(1608 376)"/>
  </g>
</svg>
